<?xml version="1.0" encoding="UTF-8" standalone="no"?>
<svg
   xmlns:dc="http://purl.org/dc/elements/1.1/"
   xmlns:cc="http://creativecommons.org/ns#"
   xmlns:rdf="http://www.w3.org/1999/02/22-rdf-syntax-ns#"
   xmlns:svg="http://www.w3.org/2000/svg"
   xmlns="http://www.w3.org/2000/svg"
   viewBox="0 0 757.33331 793.70667"
   height="793.70667"
   width="757.33331"
   xml:space="preserve"
   id="svg2"
   version="1.1"><metadata
     id="metadata8"><rdf:RDF><cc:Work
         rdf:about=""><dc:format>image/svg+xml</dc:format><dc:type
           rdf:resource="http://purl.org/dc/dcmitype/StillImage" /></cc:Work></rdf:RDF></metadata><defs
     id="defs6"><clipPath
       id="clipPath18"
       clipPathUnits="userSpaceOnUse"><path
         id="path16"
         d="M 0,595.28 H 568 V 0 H 0 Z" /></clipPath></defs><g
     transform="matrix(1.3333333,0,0,-1.3333333,0,793.70667)"
     id="g10"><g
       id="g12"><g
         clip-path="url(#clipPath18)"
         id="g14"><g
           transform="translate(339.0713,366.4897)"
           id="g20"><path
             id="path22"
             style="fill:#161616;fill-opacity:1;fill-rule:nonzero;stroke:none"
             d="m 0,0 c -33.405,0 -58.989,-33.994 -58.989,-68.85 0,-34.856 26.251,-68.915 58.989,-68.85 l 80.543,-0.065 V 0 Z" /></g><g
           transform="translate(196.4741,368.1558)"
           id="g24"><path
             id="path26"
             style="fill:#161616;fill-opacity:1;fill-rule:nonzero;stroke:none"
             d="M 0,0 82.768,0.065 223.139,142.15 H 12.182 c -39.144,0 -71.171,-32.027 -71.171,-71.171 V -67.208 -67.702 -68.85 C -58.989,-33.994 -33.405,0 0,0" /></g><g
           transform="translate(277.0171,228.7275)"
           id="g28"><path
             id="path30"
             style="fill:#161616;fill-opacity:1;fill-rule:nonzero;stroke:none"
             d="m 0,0 v -0.003 l -80.543,0.065 c -32.146,-0.064 -58.038,32.774 -58.964,66.96 -0.016,0.63 -0.025,-137.939 -0.025,-137.939 0,-39.144 32.027,-71.171 71.171,-71.171 H 142.596 L 4.021,-0.003 Z" /></g></g></g></g></svg>